2. General Trends
…
Male

1

46.00000

3. Top Jobs

combined_1850 %>%
  select(occstr, label) %>%
  group_by(occstr, label) %>%
  summarise(count = n()) %>%
  arrange(desc(count))

## # A tibble: 6,961 x 3
## # Groups:   occstr [6,641]
##    occstr    label                                count
##    <chr>     <chr>                                <int>
##  1 <NA>      Blank                               455164
##  2 LABORER   Laborers (not specified)             23496
##  3 CLERK     Clerks in stores                     14720
##  4 TAILOR    Tailors and tailoresses               8289
##  5 CARPENTER Carpenters and joiners                7882
##  6 MERCHANT  Traders and dealers (not specified)   6569
##  7 SEAMAN    Sailors                               6226
##  8 NONE      Other non-occupational response       4818
##  9 MASON     Masons (brick and stone)              3587
## 10 GROCER    Traders and dealers in groceries      3515
## # ... with 6,951 more rows

combined_1880 %>%
  select(occstr, label) %>%
  group_by(occstr, label) %>%
  summarise(count = n()) %>%
  arrange(desc(count))

## # A tibble: 80,717 x 3
## # Groups:   occstr [79,860]
##    occstr         label                     count
##    <chr>          <chr>                     <int>
##  1 <NA>           Blank                    312055
##  2 KEEPING HOUSE  Keeping house            196669
##  3 AT HOME        Blank                    138504
##  4 AT SCHOOL      Student                  107843
##  5 AT SCHOOL      Blank                     76462
##  6 KEEPS HOUSE    Keeping house             63463
##  7 LABORER        Laborers (not specified)  49393
##  8 SERVANT        Domestic servants         48360
##  9 SCHOOL         Student                   16154
## 10 CLERK IN STORE Clerks in stores          15857
## # ... with 80,707 more rows

combined_1910 %>%
  select(occstr, label, occstr_2) %>%
  group_by(occstr, label, occstr_2) %>%
  summarise(count = n()) %>%
  arrange(desc(count))

## # A tibble: 74,550 x 4
## # Groups:   occstr, label [74,550]
##    occstr     label                                       occstr_2    count
##    <chr>      <chr>                                       <chr>       <int>
##  1 <NA>       N/A (blank)                                 <NA>       2.03e6
##  2 LABORER    Laborers (n.e.c.)                           LABORER    6.71e4
##  3 OPERATOR   Operative and kindred workers (n.e.c.)      OPERATOR   5.75e4
##  4 SALESMAN   Salesmen and sales clerks (n.e.c.)          SALESMAN   5.28e4
##  5 SERVANT    Private household workers (n.e.c.)          SERVANT    4.84e4
##  6 TAILOR     Tailors and tailoresses                     TAILOR     4.53e4
##  7 CLERK      Clerical and kindred workers (n.e.c.)       CLERK      4.17e4
##  8 <NA>       Not yet classified                          <NA>       3.11e4
##  9 DRESSMAKER Dressmakers and seamstresses, except facto~ DRESSMAKER 2.91e4
## 10 CARPENTER  Carpenters                                  CARPENTER  2.88e4
## # ... with 74,540 more rows
…
